code_commune,commune,dep,siege_fonc,siege_proj,antenne_fonc,antenne_proj
67448,Schirmeck,67,1,0,0,0
67482,Strasbourg,67,3,1,0,0
67550,Woerth,67,1,0,0,0
68021,Bartenheim,68,1,0,0,0
68066,Colmar,68,0,1,0,0
68097,Fréland,68,1,0,0,0
68129,Heimsbrunn,68,0,1,0,0
68166,Kingersheim,68,1,0,0,0
68201,Masevaux,68,0,1,0,0
68224,Mulhouse,68,0,2,0,0
68334,Thann,68,0,1,0,0
08090,Carignan,08,0,1,0,0
08190,Givet,08,0,1,0,0
08239,Juniville,08,1,0,0,0
08311,Mouzon,08,1,0,0,0
08354,Raucourt et Flaba,08,0,1,0,0
08365,Rimogne,08,1,0,0,0
08367,Rocroi,08,0,1,0,0
08420,Signy le Petit,08,1,0,0,0
10003,Aix en Othe,10,0,1,0,0
10033,Bar sur Aube,10,0,1,0,0
10034,Bar sur Seine,10,0,1,0,0
10080,Chaource,10,1,0,0,0
10081,La Chapelle Saint Luc,10,1,0,0,0
10094,Chavanges,10,1,0,0,0
10123,Dienville,10,1,0,0,0
10224,Marigny le Châtel,10,1,0,0,0
10323,Romilly sur Seine,10,1,0,0,0
10387,Troyes,10,0,1,0,0
51108,Châlons en Champagne,51,0,1,0,0
51136,Châtillon sur Marne,51,1,0,0,0
51217,Dormans,51,1,0,0,0
51380,Montmirail,51,1,0,0,0
51454,"Reims, quartier Orgeval",51,1,0,0,0
51513,Saint Rémy en Bouzemont,51,1,0,0,0
51535,Sézannes,51,1,0,0,0
51559,Suippes,51,1,0,0,0
51590,Vanault-les-Dames,51,1,0,0,0
51612,Vertus,51,0,1,0,0
51432,Pleurs,51,0,1,0,0
52060,Bourbonne les Bains,52,1,0,0,0
52064,Bourmont,52,1,0,0,0
52197,Fayl-Billot,52,1,0,0,0
52211,Froncles,52,1,0,0,0
52250,Joinville,52,0,1,0,0
52269,Langres,52,0,1,0,0
52332,Val de Meuse,52,1,0,0,0
52448,Saint Dizier,52,1,0,0,0
52550,Wassy,52,0,1,0,0
54010,Allamps,54,0,1,0,0
54040,Badonviller,54,1,0,0,0
54054,Bayon,54,1,0,0,0
54129,Cirey sur Vezouze,54,1,0,0,0
54176,Einville au Jard,54,1,0,0,0
54196,Flavigny sur Moselle,54,1,0,0,0
54252,Haroué,54,1,0,0,0
54322,Longuyon,54,0,1,0,0
54323,Longwy,54,1,0,0,0
54331,Magnières,54,1,0,0,0
54362,Mercy le Bas,54,1,0,0,0
54518,Thiaucourt,54,0,1,0,0
54526,Tomblaine,54,1,0,0,0
55010,Ancerville,55,0,0,1,0
55043,Belleville sur Meuse,55,0,1,0,0
55117,Clermont en Argonne,55,1,0,0,0
55145,Damvillers,55,1,0,0,0
55154,Dieue sur Meuse,55,1,0,0,0
55155,Dombasle en Argonne,55,0,0,1,0
55181,Etain,55,0,1,0,0
55198,Fresnes en Woëvre,55,1,0,0,0
55215,Gondrecourt le Château,55,1,0,0,0
55268,Lacroix sur Meuse,55,0,0,0,1
55296,Lisle en Rigault,55,1,0,0,0
55351,Montmédy,55,0,1,0,0
55398,Pagny sur Meuse,55,1,0,0,0
55423,Rembercourt-Sommaisne,55,0,0,1,0
55427,Revigny sur Ornain,55,1,0,0,0
55463,Saint Mihiel,55,0,1,0,0
55500,Spincourt,55,1,0,0,0
55516,Tréveray,55,0,0,1,0
55517,Seuil d'Argonne,55,1,0,0,0
55551,Vigneulles lès Hattonchâtel,55,1,0,0,0
55573,Void Vacon,55,1,0,0,0
57177,Dieuze,57,0,1,0,0
57250,Goetzentbruck,57,1,0,0,0
57262,Grostenquin,57,1,0,0,0
57465,Metzervisse,57,0,1,0,0
88079,Bulgnéville,88,1,0,0,0
88090,Charmes,88,0,1,0,0
88124,Darney,88,1,0,0,0
88135,Docelles,88,1,0,0,0
88148,Dommartin lès Remiremont,88,1,0,0,0
88160,Epinal,88,1,0,0,0
88196,Gérardmer,88,1,0,0,0
88258,Lamarche,88,0,1,0,0
88267,Lerrain,88,0,0,1,0
88310,Monthureux sur Saône,88,1,0,0,0
88361,Provenchères sur Fave,88,1,0,0,0
88367,Rambervillers,88,1,0,0,0
88426,Saint Maurice sur Moselle,88,1,0,0,0
88468,Le Thillot,88,1,0,0,0
88487,le Val d'Ajol,88,1,0,0,0
88504,Vicherey,88,1,0,0,0
88530,Xertigny,88,1,0,0,0
,,,0,0,0,0
,,,0,0,0,0
,,,0,0,0,0
,,,0,0,0,0
